Estimating temporal changes in land area
…
Often, however, examining the components of change can yield
valuable insight into the drivers of net changes in forest resources. As
such, areaChange() allows us to explicitly estimate change
components when chngType = "component". In our simple
example, this means estimating the annual rates of reversion and
diversion in our region:

# Estimate change in forestland area by component
areaChange(ri, chngType = 'component')

## # A tibble: 45 × 11
##     YEAR STATUS1 STATUS2 PERC_CHNG AREA_CHNG PREV_AREA PERC_CHNG_SE AREA_CHNG_SE
##    <dbl> <chr>   <chr>       <dbl>     <dbl>     <dbl>        <dbl>        <dbl>
##  1  2008 Forest  Forest        0          0    375257.       NaN           NaN  
##  2  2008 Forest  Non-fo…      19.2     2654.    13857.         5.21         73.9
##  3  2008 Non-fo… Forest       21.4      272.     1268.         1.11        106. 
##  4  2009 Forest  Forest        0          0    321493.       NaN           NaN  
##  5  2009 Forest  Non-fo…      20.0     2281.    11409.         3.66         53.3
##  6  2009 Non-fo… Forest       20.7      869.     4207.         1.23         49.7
##  7  2010 Forest  Forest        0          0    340459.       NaN           NaN  
##  8  2010 Forest  Non-fo…      19.7     3313.    16850.         3.32         35.8
##  9  2010 Non-fo… Forest       21.1     1205.     5699.         1.89         40.1
## 10  2011 Forest  Forest        0          0    343518.       NaN           NaN  
## # ℹ 35 more rows
## # ℹ 3 more variables: PREV_AREA_SE <dbl>, nPlots_AREA <int>, N <int>
…
