Tips for working with big data
…
# All the extra goodies work the same:
# By species
biomass(fia, bySpecies = TRUE)

## # A tibble: 1,235 × 11
##     YEAR  SPCD COMMON_NAME        SCIENTIFIC_NAME BIO_ACRE CARB_ACRE BIO_ACRE_SE
##    <dbl> <dbl> <chr>              <chr>              <dbl>     <dbl>       <dbl>
##  1  2005    10 fir spp.           Abies spp.      0.000761  0.000366       100. 
##  2  2005    43 Atlantic white-ce… Chamaecyparis … 0.00398   0.00189         99.9
##  3  2005    68 eastern redcedar   Juniperus virg… 0.517     0.269           29.4
##  4  2005    91 Norway spruce      Picea abies     0.00445   0.00213        100. 
##  5  2005    97 red spruce         Picea rubens    0.0155    0.00745        100. 
##  6  2005   125 red pine           Pinus resinosa  0.0300    0.0160         100. 
##  7  2005   126 pitch pine         Pinus rigida    0.417     0.199           58.4
##  8  2005   129 eastern white pine Pinus strobus   3.78      1.92            20.3
##  9  2005   261 eastern hemlock    Tsuga canadens… 2.58      1.24            22.9
## 10  2005   315 striped maple      Acer pensylvan… 0.00956   0.00457         77.1
## # ℹ 1,225 more rows
## # ℹ 4 more variables: CARB_ACRE_SE <dbl>, nPlots_TREE <int>, nPlots_AREA <int>,
## #   N <int>
…
# Grouping variables
biomass(fia, grpBy = c(STDORGCD, SITECLCD))

## # A tibble: 145 × 10
##     YEAR STDORGCD SITECLCD BIO_ACRE CARB_ACRE BIO_ACRE_SE CARB_ACRE_SE
##    <dbl>    <int>    <int>    <dbl>     <dbl>       <dbl>        <dbl>
##  1  2005        0        3    105.      51.3        12.4         11.9 
##  2  2005        0        4     86.5     41.6         7.52         7.53
##  3  2005        0        5     72.9     35.1         3.45         3.45
##  4  2005        0        6     55.5     26.7         7.37         7.36
##  5  2005        0        7     45.6     22.1         9.93        10.3 
##  6  2005        1        3     84.7     42.1         0            0   
##  7  2005        1        6     10.2      4.94        6.25         6.06
##  8  2006        0        3    103.      50.5        11.4         11.0 
##  9  2006        0        4     80.9     39.0         6.96         6.89
## 10  2006        0        5     75.3     36.2         2.89         2.93
## # ℹ 135 more rows
## # ℹ 3 more variables: nPlots_TREE <int>, nPlots_AREA <int>, N <int>
…
# Now we can save our changes to the modified tables on disk with writeFIA
# This will overwrite the COND tables previously stored in our target directory
# And allow us to use our new variables in a subsequent 'Remote.FIA.Database'
writeFIA(modTables, dir = 'path/to/save/', byState = TRUE)

# Now set up the Remote database again
fia <- readFIA('path/to/save/', inMemory = FALSE)

# And produce estimates grouped by our new variable
biomass(fia, grpBy = STANDAGEGROUP)

## # A tibble: 78 × 9
##     YEAR STANDAGEGROUP BIO_ACRE CARB_ACRE BIO_ACRE_SE CARB_ACRE_SE nPlots_TREE
##    <dbl> <chr>            <dbl>     <dbl>       <dbl>        <dbl>       <int>
##  1  2005 [-49,1)          12.4       5.88       80.2         80.1            3
##  2  2005 [1,51)           33.6      16.2        14.2         14.2           35
##  3  2005 [101,151)        83.2      39.9         7.39         7.33          18
##  4  2005 [51,101)         74.7      35.9         3.19         3.20         178
##  5  2006 [-49,1)          12.9       6.11       67.9         67.8            3
##  6  2006 [1,51)           35.7      17.2        10.5         10.5           57
##  7  2006 [101,151)        79.9      38.3         6.64         6.58          23
##  8  2006 [51,101)         76.4      36.8         2.65         2.66         261
##  9  2007 [-49,1)           6.19      2.93       91.0         90.9            3
## 10  2007 [1,51)           35.5      17.1         9.45         9.43          74
## # ℹ 68 more rows
## # ℹ 2 more variables: nPlots_AREA <int>, N <int>
…
